@E000
2F 0B 4C 07 00 00 FF 00 12 00 00 06 00 22 BE 8B
D8 83 00 20 00 35 07 00 18 16 6C 43 40 91 87 6B
F8 56 10 A9 0A 00 11 C0 C9 83 8E 57 26 1C 0D 11
8E C9 83 8E 57 26 1C 0D 11 01 05 0A 0F 14 18 1D
22 27 2B 30 35 39 28 63 29 20 32 30 31 37 20 44
4D 50 00 AA AA AA AA 89 FC 45 6C 04 49 BE 22 00
86 02 81 07 0A 
@E066
31 40 00 03 3C 40 0C 02 3D 40 77 00 B0 12 96 F3
3C 40 00 02 3D 40 5A E0 3E 40 0B 00 B0 12 C4 F4
B0 12 CA E2 B0 12 BC F4 B0 12 B6 E0 B0 12 A8 F3
B0 12 14 F4 7C 40 35 00 B0 12 22 E5 F2 D0 10 00
2A 00 F2 C2 24 00 F2 C2 23 00 F2 D2 25 00 30 41
F2 C2 25 00 7C 40 36 00 30 40 22 E5 5C 42 22 02
30 41 F2 B0 42 00 20 02 03 20 B0 12 D2 E1 13 3C
F2 B0 40 00 20 02 03 2C B0 12 12 E1 0C 3C F2 90
10 00 26 02 03 2C D2 53 26 02 05 3C F2 C0 40 00
20 02 F2 D2 20 02 1F 42 0C 02 1F 53 3F 90 2C 01
01 28 0F 43 82 4F 0C 02 30 40 48 F4 0A 12 0B 12
4C 43 C2 93 28 02 04 20 F2 D0 10 00 29 00 03 3C
F2 C0 10 00 29 00 5A 42 25 02 5B 42 24 02 7A 92
0A 28 C2 93 29 02 02 20 5E 43 01 3C 4E 43 C2 4E
29 02 5A 43 3A 3C 5D 42 23 02 7D 90 07 00 03 2C
5C 4D 53 E0 1A 3C 5E 42 0A 02 0F 4E 3F 50 07 00
0D 9F 0C 34 5C 4D 4D 02 3E 50 06 00 0D 9E 0D 20
6B 93 0B 20 F2 D0 20 00 20 02 07 3C C2 43 26 02
E2 C3 20 02 F2 D0 40 00 20 02 4C BB 02 20 4E 43
01 3C 5E 43 5E 92 29 02 04 24 C2 4E 29 02 5A 43
01 3C 5A 53 0B 11 09 20 7B 40 80 00 D2 53 23 02
F2 90 07 00 23 02 01 20 4A 43 C2 4B 24 02 C2 4E
28 02 C2 4A 25 02 3B 41 3A 41 30 41 0A 12 0B 12
F2 B0 10 00 28 00 4E 7E 5E 53 5A 42 25 02 1C 42
0E 02 1D 42 10 02 F2 B0 05 00 20 02 3E 24 5B 42
21 02 7A 92 07 28 5E 92 27 02 2E 20 D2 C3 20 02
5A 53 44 3C 5F 42 22 02 5E B3 02 28 CF 5B 34 02
0B 11 22 20 7B 40 80 00 4F 93 15 20 C2 93 2B 02
0A 24 5F 42 34 02 7F F0 3F 00 C2 9F 2B 02 03 24
E2 C2 20 02 0B 3C B2 40 F6 00 0C 02 E2 C2 20 02
D2 D3 20 02 03 3C 7F 90 1F 00 06 2C D2 53 22 02
5F 42 22 02 CF 43 34 02 C2 4B 21 02 5E 92 27 02
CF 27 C2 4E 27 02 5A 43 11 3C 0C 5C 0D 6D 5E B3
01 28 1C D3 4F 4D 3C 90 A5 46 08 20 3F 90 82 00
05 20 B0 12 1C F3 E2 D2 20 02 4A 43 C2 4A 25 02
82 4C 0E 02 82 4D 10 02 96 3F B0 12 1C F3 F2 C2
25 00 F2 C0 10 00 2A 00 7C 40 34 00 B0 12 22 E5
1F 42 70 01 3F 50 C0 01 82 4F 76 01 B2 40 B0 40
66 01 EF 3E 5C 43 B0 12 54 F4 7A 40 03 00 3B 40
E2 EF 38 40 9C EC 08 3C 3C 40 33 02 B0 12 F4 E7
6C 92 02 24 4C 4A 8B 12 82 93 16 02 0C 20 D2 93
2D 02 03 24 C2 93 2D 02 04 20 B0 12 2A EF 6C 43
88 12 5C 43 8B 12 5E 42 32 02 5F 42 30 02 5F 83
05 24 5F 83 07 24 5F 83 15 24 17 3C C2 4E 31 02
4C 43 11 3C 5E 92 31 02 09 20 B2 40 0C 5A 20 01
B0 12 32 F3 5C 43 B0 12 E6 EE 07 3C B0 12 32 F3
5C 43 01 3C 6C 43 B0 12 D0 E6 C2 43 30 02 5E 42
2D 02 4E 83 0D 24 5E 83 0B 24 5E 83 BD 27 5E 83
0C 24 5E 83 2E 24 5E 83 48 24 5E 83 4C 24 BC 3F
D2 B3 20 02 B9 2B 6C 43 B6 3F 5C 42 33 02 B0 12
A0 E5 4C 83 14 24 5C 83 05 24 5C 83 0B 24 5C 83
AB 27 14 3C 6C 43 B0 12 9E EE 6C 42 8B 12 4C 43
88 12 A2 3F 4C 43 88 12 D2 43 30 02 9D 3F 5C 43
88 12 4C 4A B0 12 9E EE B0 12 7E F1 B0 12 9A F4
93 3F F2 B2 20 02 0F 28 4C 4A B0 12 9E EE F2 C2
20 02 B0 12 1C F3 B0 12 7E F1 7C 40 05 00 8B 12
F2 F0 EE 00 20 02 F2 B0 20 00 20 02 7D 2B F2 C0
20 00 20 02 B0 12 CE F1 77 3F D2 B3 20 02 74 2B
7C 40 06 00 70 3F 3C 40 33 02 B0 12 F4 E7 4C 83
09 24 5C 83 0A 24 6C 83 AE 27 5C 83 65 27 5C 83
07 24 09 3C B0 12 2E F1 BF 3F C2 4A 30 02 5C 3F
E2 43 30 02 59 3F 4C 4A 88 12 C0 3F 0A 12 0B 12
1C 42 00 02 0D 4C 3D E3 0D 5D 0D 7D 3E 40 1A 00
0F 43 B0 12 7C F0 0A 4C 4B 4D 1A 52 02 02 5B 62
04 02 B2 90 6C 04 00 02 11 20 5E 43 4F 4E FF 90
1B 00 38 E0 07 2C FF 90 1B 00 39 E0 03 28 0A 8E
4B 73 04 3C 5E 53 7E 90 0D 00 F0 2B 1E 42 04 10
B0 12 CA E4 5E 42 1E 02 8E 11 B0 12 CA E4 4D 4A
7C 40 0F 00 B0 12 34 E5 0D 4A 8D 10 7C 40 0E 00
B0 12 34 E5 4D 4B 7C 40 0D 00 B0 12 34 E5 3B 41
3A 41 30 41 0F 4E 3F E3 0F 5F 4F 7F 0A 5E 4B 6F
30 41 4E 43 7F 40 80 00 D2 C3 29 00 4C BF 03 24
E2 D2 21 00 02 3C E2 C2 21 00 D2 D3 29 00 F2 B2
20 00 01 28 4E DF 0F 11 EF 23 4C 4E 30 41 D2 C3
29 00 D2 C3 21 00 F2 B2 20 00 FD 2F 5C 41 02 00
30 40 D8 E4 21 83 7C D0 C0 00 13 3C 21 83 7C F0
3F 00 C1 4C 00 00 4C 12 B0 12 04 E5 12 3C 21 83
7C F0 3F 00 C1 4C 00 00 4C 12 B0 12 04 E5 4C 4D
06 3C C1 4C 00 00 4C 12 B0 12 04 E5 4C 43 B0 12
D8 E4 D2 D3 21 00 21 52 30 41 0A 12 0B 12 21 83
3A 40 27 E0 4C 93 02 24 3A 40 30 E0 F1 40 7E 00
00 00 51 12 02 00 B0 12 04 E5 4B 4C 4D 43 21 53
0F 4A 0F 5D 6C 4F B0 12 D8 E4 5D 53 7D 92 F8 2B
D2 D3 21 00 4C 4B 21 53 92 3F 0A 12 0B 12 08 12
09 12 06 12 07 12 04 12 05 12 21 83 4A 4C B0 12
C2 E0 C1 4C 00 00 4B 43 48 43 B0 12 90 F4 C1 4C
01 00 79 40 03 00 C2 43 0A 02 6F 41 47 4A 27 52
0F 97 72 28 3F 40 34 02 06 4F 06 5A 6C 46 5E 46
01 00 47 4C 77 F0 07 00 87 10 07 DE 1E 42 08 02
04 4E 14 53 45 4C 75 F0 F8 00 B0 12 54 F3 6A 52
4D 4A 7C 90 10 00 13 2C 45 93 30 24 C1 93 01 00
2D 20 07 9E 2B 38 04 97 29 38 B0 12 E8 F3 47 24
6B 43 6E 46 7E F0 F8 00 7E 90 10 00 18 3C 75 90
80 00 03 24 75 90 90 00 2D 20 B0 12 E8 F3 37 24
17 92 08 02 34 38 1F 42 08 02 1F 53 0F 97 2F 38
69 43 5B 43 6E 46 7E F0 F8 00 7E 90 90 00 02 24
4C 43 01 3C 5C 43 B0 12 04 F3 21 3C 7C 50 F4 00
6C 92 01 2C 6D 53 C1 9D 00 00 19 28 B0 12 E8 F3
16 24 B2 90 86 02 06 02 02 24 59 43 01 3C 49 43
5B 43 0D 3C 75 90 88 00 09 20 07 9E 07 38 04 97
05 38 49 43 B2 40 86 02 06 02 01 3C 58 43 4C 49
B0 12 7E EA 58 B3 03 2C 7B 40 03 00 02 3C 82 47
12 02 4C 4B 21 53 30 40 72 F3 0A 12 0B 12 08 12
21 83 0A 43 C1 43 00 00 5B 43 32 C2 03 43 03 43
4C 83 05 24 5C 83 0D 24 5C 83 12 24 1D 3C C2 43
7F 02 F2 F0 F3 00 7E 02 B0 12 22 F4 C1 43 00 00
13 3C E2 C2 7E 02 B0 12 22 F4 D1 43 00 00 0C 3C
0D 41 0D 53 4C 43 B0 12 DA EB 0A 4C C1 93 00 00
02 24 E2 C2 7E 02 4B 43 B0 12 B4 F4 B0 12 60 F4
B2 40 A0 01 60 01 18 42 70 01 1C 42 0C 02 B0 12
BC F3 3E 40 2C 01 B0 12 58 F2 7C 50 10 00 7C F0
1F 00 08 8C 82 48 1A 02 08 5A 38 50 F4 FF 82 48
76 01 B2 40 10 00 66 01 D2 D3 7E 02 3C 40 00 01
B0 12 04 F1 B2 40 8C 5A 20 01 32 D2 32 D0 D0 00
03 43 B2 40 0C 5A 20 01 C1 93 00 00 05 24 B0 12
EC F2 4C 43 B0 12 54 F4 32 C2 03 43 03 43 5A 42
2C 02 1C 42 1A 02 3E 40 A0 06 B0 12 58 F2 0C 4E
B0 12 4C F3 4C 4C 1C 53 5E 42 2B 02 B0 12 4E F0
0C 5A 3E 40 35 00 B0 12 58 F2 C2 4E 2C 02 32 D2
1F 42 70 01 3F 50 C0 01 82 4F 76 01 B2 40 B0 40
66 01 4C 4B B0 12 E6 EE 21 53 30 40 7C F3 0A 12
0B 12 08 12 0B 4C B0 12 C2 E0 4E 4C 6F 42 4C 93
31 24 7A 40 03 00 38 40 34 02 6C 48 B0 12 48 F3
4C 83 07 24 5C 83 09 24 5C 83 27 24 5C 83 60 24
6A 3C 5F 43 DB 43 00 00 1D 3C CB 4A 00 00 4E 9A
19 28 1E 42 1C 02 4D 4A 0C 48 B0 12 A6 F1 4C 93
5A 24 4F 43 5E 42 81 02 4D 4E 7D F0 0F 00 6D 92
09 2C 4D 4E 5D 53 7D F0 0F 00 7E F0 F0 00 4E DD
C2 4E 81 02 4C 4F 30 40 7C F3 FB 40 05 00 00 00
7E 90 05 00 F7 2B 1E 42 1C 02 7D 40 05 00 0C 48
B0 12 A6 F1 4C 93 37 24 C2 93 2B 02 04 24 B2 90
86 02 06 02 30 20 E2 B2 35 02 20 28 C2 93 2B 02
05 20 6E 48 7E F0 3F 00 C2 4E 2B 02 5E 42 35 02
7E F0 F8 00 5F 42 82 02 7F F0 07 00 4F DE C2 4F
82 02 5C 42 36 02 5A F2 35 02 8A 10 0C 5A 82 4C
06 02 B0 12 D4 F2 82 4C 08 02 B3 3F 6F 43 C2 3F
6E 93 C0 2B 5D 42 35 02 7D F0 07 00 6D 52 CB 4D
00 00 4E 9D B7 2B 4F 4A B5 3F 0A 12 0B 12 08 12
09 12 4E 43 4C 93 08 24 5F 42 79 02 C2 9F 75 02
03 24 5E 43 C2 4F 75 02 5F 42 7D 02 82 93 18 02
60 24 4F 93 02 20 4D 43 01 3C 5D 43 B2 53 18 02
02 20 4F 43 03 3C 4F 93 01 24 7F 53 5D B3 04 28
4F 93 02 20 B0 12 84 F3 82 93 18 02 4A 24 4C 93
4C 24 58 42 7A 02 4D 48 7D F0 C0 00 3A 40 76 02
7B 40 40 00 4D 9B 0F 24 69 4A 79 F0 C0 00 49 9B
0A 20 5E 43 49 48 79 F0 C0 00 6C 4A 7C F0 3F 00
4C D9 C2 4C 76 02 6C 4A B0 12 50 F3 49 4C 79 F0
03 00 4C 48 B0 12 50 F3 7C F0 03 00 4C 99 0B 24
49 93 09 24 5E 43 78 F0 30 00 69 4A 79 F0 CF 00
49 D8 C2 49 76 02 4D 9B 05 20 6D 4A 7D F0 C0 00
4D 9B 08 20 4C 93 0B 24 6C 4A B0 12 50 F3 7C B0
03 00 05 20 4F 93 09 20 7F 40 50 00 06 3C 4F 43
04 3C 4C 93 02 24 B0 12 84 F3 C2 4F 7D 02 4C 4E
30 40 7A F3 0A 12 0B 12 08 12 21 83 4B 4C 4A 4D
B1 40 AA AA 00 00 38 40 34 F2 5D B3 05 28 0D 41
0D 53 5C 42 2B 02 88 12 6A B3 0A 28 0D 41 0D 53
5C 42 07 02 88 12 0D 41 0D 53 5C 42 06 02 88 12
6A B2 0F 28 0D 41 0D 53 5C 42 00 10 88 12 0D 41
0D 53 5C 42 01 10 88 12 0D 41 0D 53 5C 42 02 10
88 12 2E 41 4D 4B 3C 40 54 02 B0 12 F2 F1 5E 4B
52 02 5F 4B 53 02 8F 10 0F DE 82 4F 1C 02 C2 4B
0A 02 21 53 30 40 7C F3 4C 83 05 24 5C 83 1B 24
5C 83 2E 24 30 41 E2 F2 54 02 F2 D2 54 02 D2 42
00 10 55 02 D2 42 01 10 56 02 5E 42 02 10 C2 4E
57 02 E2 43 58 02 B0 12 04 EE C2 4C 59 02 4D 43
7C 42 30 40 FA E9 F2 F0 07 00 54 02 5F 42 07 02
7F F0 07 00 C2 4F 54 02 D2 42 06 02 55 02 B0 12
04 EE C2 4C 56 02 7D 40 05 00 4C 4D 30 40 FA E9
B0 12 04 EE C2 4C 54 02 7D 40 07 00 7C 40 03 00
30 40 FA E9 B2 40 20 02 60 01 82 43 62 01 D2 D3
22 00 D2 D3 2A 00 F2 C2 22 00 E2 D2 22 00 D2 C3
26 00 D2 C3 2E 00 F2 C2 26 00 E2 C2 26 00 D2 D3
29 00 E2 C2 21 00 D2 D3 21 00 D2 C3 21 00 D2 D3
21 00 1F 42 70 01 3F 50 AD 00 82 4F 72 01 92 B3
62 01 FD 2B D2 C3 21 00 F2 B2 20 00 FD 2F 7C 40
30 00 B0 12 22 E5 F2 B2 20 00 FD 2F 82 43 62 01
B0 12 AC F0 4C 43 30 40 60 E5 0D 12 0C 12 0F 12
0E 12 82 43 62 01 C2 93 2A 02 0E 24 B0 12 6C F4
4C 93 12 20 B0 12 3C EC 4C 93 0A 24 4D 43 5C 43
B0 12 FA EC 4C 93 08 24 B1 C0 F0 00 08 00 04 3C
3C 40 00 01 B0 12 04 F1 3E 41 3F 41 3C 41 3D 41
00 13 0D 12 0C 12 0F 12 0E 12 F2 B2 23 00 05 28
F2 C2 23 00 B0 12 C8 E0 04 3C C2 43 23 00 F2 F2
25 00 EA 3F 0A 12 0B 12 0A 4D 4C 93 05 20 5B 42
80 02 7B 90 13 00 07 28 B0 12 5E F3 C2 43 80 02
DA 43 00 00 1D 3C CD 43 00 00 7B 90 07 00 06 2C
1C 43 4E 4B B0 12 84 F4 4F 4C 02 3C 7F 40 40 00
1C 42 00 10 1D 42 02 10 4E 4B B0 12 14 F2 7F 53
7F D0 07 00 4C FF 5C 53 D2 53 80 02 B0 12 BC F3
3B 41 3A 41 30 41 4E 43 C2 43 7C 02 E2 B3 20 00
02 2C 7E 40 40 00 C2 4E 7B 02 F2 B0 40 00 20 00
03 2C F2 40 40 00 7C 02 5E 42 7C 02 7E F0 CF 00
F2 B0 20 00 82 02 05 28 E2 B2 28 00 4C 7C 5C 53
04 3C E2 B2 28 00 4C 7C 5C F3 B0 12 BE F3 4E DC
C2 4E 7C 02 52 12 7B 02 D1 42 7C 02 01 00 B0 12
AE ED 21 53 30 41 4C 83 07 24 5C 83 09 24 5C 83
19 24 5C 83 22 24 30 41 B2 40 05 00 14 02 0B 3C
B2 90 05 00 14 02 1D 34 92 53 14 02 92 93 14 02
18 34 92 43 14 02 5E 42 34 02 7E F0 3F 00 C2 4E
2E 02 30 41 B0 12 BC F2 02 34 B2 53 14 02 92 93
14 02 07 34 D2 43 2E 02 30 41 82 43 14 02 C2 43
2E 02 30 41 5E 43 5F 42 7F 02 E2 B2 7E 02 0E 2C
5C B3 03 2C E2 C3 7E 02 02 3C E2 D3 7E 02 5F 53
7F 90 3C 00 03 28 4F 43 F2 D2 7E 02 C2 4F 7F 02
5F 42 7E 02 7F F0 0A 00 7F 92 05 20 C2 93 7F 02
02 24 4E 43 0A 3C 1F 42 70 01 1F 82 1A 02 82 4F
1A 02 D2 C3 7E 02 E2 D2 7E 02 4C 4E 30 41 0F 43
B2 40 00 51 66 01 B2 40 24 02 60 01 06 3C 5E 53
C2 4E 56 00 02 20 D2 53 57 00 92 B3 66 01 FD 2B
92 C3 66 01 1E 42 76 01 0E 8F 1E C3 1F 42 76 01
3E 90 1A 04 03 20 82 43 66 01 30 41 3E 90 1B 04
5E 42 56 00 E4 2B 4D 4E 7D 53 C2 4D 56 00 4E 93
E4 23 F2 53 57 00 E1 3F 4C 43 3F 40 77 02 D1 92
78 02 03 00 03 20 E1 9F 02 00 07 24 DF 41 02 00
00 00 DF 41 03 00 01 00 18 3C D2 92 78 02 7A 02
03 20 E2 9F 79 02 11 24 F2 B0 40 00 75 02 04 2C
F2 B0 40 00 77 02 03 28 F2 F0 F0 00 81 02 E2 4F
79 02 D2 4F 01 00 7A 02 5C 43 30 40 00 E9 0A 12
4A 43 F2 B0 C0 00 76 02 01 24 5A 43 5C 42 76 02
B0 12 50 F3 7C B0 03 00 01 24 6A D3 F2 B0 20 00
82 02 01 28 6A E3 F2 B0 40 00 75 02 02 28 7A D0
40 00 D2 B3 74 02 02 28 7A D0 20 00 B0 12 90 F4
4C 93 02 20 7A D0 80 00 4C 4A 3A 41 30 41 0D 12
0C 12 0F 12 0E 12 A2 92 2E 01 19 20 B2 50 C0 01
76 01 B0 12 A4 F4 4C 93 12 24 4D 43 4C 43 B0 12
FA EC 4C 93 04 24 B1 C0 F0 00 08 00 08 3C 1F 42
70 01 82 4F 1A 02 3F 50 00 F0 82 4F 76 01 3E 41
3F 41 3C 41 3D 41 00 13 0A 12 4A 4C 4C 93 05 20
B0 12 D8 F3 B0 12 30 F4 19 3C 7C 90 03 00 03 20
B0 12 3C F4 13 3C 5E 42 81 02 7E F0 0F 00 6E 92
02 2C E2 D3 29 00 B0 12 A4 F2 5A 93 05 20 B0 12
3C F4 B0 12 A0 E2 02 3C B0 12 8E E0 3A 41 30 41
0A 12 4A 4C B0 12 9A F4 82 43 0C 02 4C 43 B0 12
E2 EF 7C 40 03 00 B0 12 9E EE 4A 93 08 24 82 93
14 02 02 34 82 43 14 02 F2 40 C8 00 2F 02 5C 42
2C 02 B0 12 8A F2 B0 12 B4 F4 5C 43 B0 12 9E EE
3A 41 30 41 1E 42 14 02 2E 93 11 34 7E B0 3F 00
02 20 0E 93 0C 38 1E 93 10 20 5C 42 2E 02 0C 5C
0C 5C 3E 40 35 00 B0 12 58 F2 C2 4E 2E 02 7C 40
03 00 B0 12 9E EE 30 40 7E F1 B0 12 BC F2 02 38
E2 43 30 02 30 41 0A 12 4A 4C F2 D0 30 00 57 00
F2 D0 0C 00 53 00 B2 40 0C 5A 20 01 E2 C3 29 00
E2 D3 2A 00 B0 12 54 ED B0 12 AC F4 F2 D0 B0 00
22 00 4C 4A B0 12 AA EF 4D 43 5C 43 B0 12 FA EC
3A 41 30 41 E2 C2 2A 00 F2 C0 40 00 22 00 E2 C3
22 00 F2 C2 2A 00 F2 D0 20 00 2A 00 F2 C0 20 00
2E 00 F2 C0 20 00 29 00 F2 42 5B 00 4C 93 02 24
B0 12 16 F0 3C 40 00 01 30 40 04 F1 6C 92 02 24
5C 93 05 20 F2 53 2F 02 02 20 E2 43 30 02 4C 93
08 24 7C 90 05 00 05 20 3F 40 00 01 1F 82 0C 02
02 3C 3F 40 2C 01 82 4F 16 02 C2 4C 2D 02 30 41
B2 40 A0 01 60 01 1F 42 70 01 3F 50 00 08 82 4F
72 01 B2 40 10 00 62 01 B2 40 8C 5A 20 01 32 D2
32 D0 D0 00 32 C2 03 43 B2 40 0C 5A 20 01 D2 43
2A 02 30 41 7C F3 7E F3 09 12 09 4C 0C 9E 03 28
09 4E 0E 4C 12 C3 0F 43 0C 43 0D 43 09 10 02 28
0C 5E 0D 6F 0E 5E 0F 6F 09 10 F9 23 02 28 0C 5E
0D 6F 39 41 30 41 0A 12 0B 12 0A 4C 0B 4D 0C 43
0D 43 0A 93 02 20 0B 93 0B 24 12 C3 0B 10 0A 10
02 28 0C 5E 0D 6F 0E 5E 0F 6F F3 23 0E 93 F1 23
3B 41 3A 41 30 41 21 83 F1 40 40 00 00 00 51 12
02 00 B0 12 04 E5 4D 43 21 53 5C 4D 00 E0 B0 12
D8 E4 5D 53 7D 90 27 00 F8 2B D2 D3 21 00 21 53
30 41 4C 93 07 20 3E 40 49 BE 3F 40 22 00 3D 40
6C 04 06 3C 3E 40 9B D4 3F 40 22 00 3D 40 90 03
82 4E 02 02 82 4F 04 02 82 4D 00 02 30 41 B2 B0
10 00 62 01 10 2C 1F 42 70 01 0E 4F 0E 5C 3E 50
14 00 1F 82 1A 02 3F F0 1F 00 0E 8F 82 4E 72 01
B2 40 10 00 62 01 30 41 5E 42 1E 02 F2 93 1F 02
05 34 7E 90 20 00 09 34 7E 53 07 3C E2 93 1F 02
04 38 7E 90 E1 00 01 38 5E 53 C2 4E 1E 02 30 41
0A 12 0B 12 08 12 0E 12 0B 4C 4A 4D 48 43 06 3C
0D 41 0D 53 7C 4B B0 12 34 F2 58 53 48 9A F8 2B
2C 41 21 53 30 40 7C F3 5D 42 2E 02 5C 42 2C 02
B0 12 C8 F3 C2 4C 2C 02 B0 12 8A F2 5C 43 B0 12
9E EE 1C 42 12 02 B0 12 06 F4 82 4C 12 02 30 41
0A 12 4D 4D 0A 4C 0A 5D 6D 83 B0 12 56 F1 5E 4A
FF FF 5F 4A FE FF 8F 10 0E 5F 0C 9E 02 24 4C 43
01 3C 5C 43 3A 41 30 41 D2 B3 5A 00 0C 28 5E 42
74 02 0E 11 7E 90 0A 00 03 2C E2 53 74 02 30 41
D2 D3 74 02 30 41 C2 43 74 02 30 41 0A 12 0B 12
0B 4C 4A 4D 6D 83 B0 12 56 F1 0B 5A 0F 4C 8F 10
CB 4F FE FF CB 4C FF FF 3B 41 3A 41 30 41 7E 90
10 00 06 28 0C 4D 3D E3 0D 5D 0D 7D 7E 80 10 00
4E 93 04 24 0D 11 0C 10 5E 83 FC 23 30 41 4C 4C
2C ED 7E 42 0F 4C 12 C3 0F 10 1C B3 0C 4F 02 28
3C E0 01 A0 7E 53 F6 23 8D 4C 00 00 30 41 7C F3
7E F3 0F 4E 0D 4C 0E 43 1C 43 0D 5D 0E 6E 0E 9F
01 28 0E 8F 0C 6C F9 2B 30 41 0A 12 0A 4C 04 3C
EA 4D 00 00 1A 53 1D 53 0F 4E 3E 53 0F 93 F8 23
3A 41 30 41 4E 4C C2 4C 2C 02 B0 12 F8 F3 7E 90
35 00 02 28 B0 12 F8 F3 4C 4E 30 40 42 E4 F2 D0
20 00 29 00 F2 40 60 00 59 00 F2 40 06 00 5A 00
F2 D2 59 00 30 41 B0 12 78 F4 4C 93 03 20 3F 40
3F FF 02 3C 3F 40 BF FF 1F 92 14 02 30 41 0F 43
03 3C 2F 53 3C 50 88 FF 3C 90 78 00 FA 2F B0 12
BE F3 0C 5F 30 41 B2 40 86 02 06 02 C2 43 2B 02
B2 40 81 07 12 02 B2 40 81 07 08 02 30 41 4C 93
04 24 B2 40 D0 02 18 02 30 41 82 93 18 02 02 24
A2 42 18 02 30 41 F2 40 80 00 21 02 C2 43 22 02
C2 43 34 02 F2 F0 FA 00 20 02 30 41 C2 93 32 02
02 24 4E 43 01 3C 5E 43 C2 4E 32 02 4C 4E 30 40
D8 F0 12 C3 0C 10 12 C3 0C 10 12 C3 0C 10 12 C3
0C 10 0C 11 0C 11 30 41 1C 42 08 02 1C 82 12 02
1C 93 02 34 3C 50 80 07 30 40 BC F3 35 41 34 41
37 41 36 41 39 41 38 41 3B 41 3A 41 30 41 58 42
7A 02 C2 98 76 02 03 24 5E 43 C2 48 76 02 30 41
0F 4C 0F 5D 03 3C CC 43 00 00 1C 53 0C 9F FB 23
30 41 C2 43 23 02 F2 40 40 00 24 02 E2 D3 20 02
30 41 0C 5C 0C 5C 0C 5C 0C 5C 0C 5C 0C 5C 0C 5C
30 41 4C 5D 02 3C 7C 50 CB 00 7C 90 35 00 FB 2F
30 41 B0 12 B6 E0 E2 C3 29 00 7C 40 39 00 30 40
22 E5 58 43 3E 40 AA AA 0C 4F B0 12 A6 F1 4C 93
30 41 4C 4E B0 12 C0 F3 4E EC 7E F0 3F 00 30 41
3C 90 7F 07 02 38 0C 43 30 41 1C 53 30 41 7C 40
32 00 B0 12 1A E5 C2 4C 1F 02 30 41 0D 41 2D 53
5C 43 B0 12 DA EB 0A 4C 30 41 F2 C2 59 00 F2 C0
20 00 29 00 30 41 F2 C2 25 00 7C 40 36 00 30 40
22 E5 92 93 16 02 02 38 B2 53 16 02 30 41 B0 12
6C EF 32 D2 5C 43 30 40 E6 EE 5C 43 B0 12 9E EE
4C 43 30 40 9E EE 5C 42 7E 02 0C 11 4C 11 5C F3
30 41 5C 42 7E 02 B0 12 54 F3 5C F3 30 41 4E 93
03 24 0C 5C 5E 83 FD 23 30 41 5C 42 7E 02 0C 11
5C F3 30 41 D2 C3 20 02 D2 43 2D 02 30 41 5C 42
7E 02 5C F3 30 41 B0 12 FA EA 30 40 D8 F3 F2 F0
40 00 20 02 30 41 30 40 C0 F4 30 40 C8 F4 30 40
70 F2 FF 3F 
@FFE4
B8 EB 
@FFF0
54 EE 70 EB 
@FFFE
66 E0 
q
