@E000
2F 0B 4C 07 00 00 FF 00 12 00 00 06 00 22 BE 8B
D8 83 00 20 00 35 07 00 18 16 6C 43 40 91 87 6B
F8 56 10 A9 0A 00 11 C0 C9 83 8E 57 26 1C 0D 11
8E C9 83 8E 57 26 1C 0D 11 01 05 0A 0F 14 18 1D
22 27 2B 30 35 39 28 63 29 20 32 30 31 37 20 44
4D 50 00 AA AA AA AA 89 FC 45 6C 04 49 BE 22 00
86 02 81 07 0A 
@E066
31 40 00 03 3C 40 0C 02 3D 40 7D 00 B0 12 B0 F2
3C 40 00 02 3D 40 5A E0 3E 40 0B 00 B0 12 76 F3
B0 12 BA E2 B0 12 72 F3 B0 12 1E F2 F2 C2 25 00
F2 C0 10 00 2A 00 7C 40 34 00 B0 12 86 E8 1F 42
70 01 3F 50 C0 01 82 4F 76 01 B2 40 B0 40 66 01
F2 C2 24 00 F2 C2 23 00 F2 D2 25 00 30 41 0A 12
0B 12 F2 B0 10 00 28 00 4E 7E 5E 53 5A 42 2B 02
1C 42 0E 02 1D 42 10 02 F2 B0 05 00 26 02 3E 24
5B 42 27 02 7A 92 07 28 5E 92 2D 02 2E 20 D2 C3
26 02 5A 53 43 3C 5F 42 28 02 5E B3 02 24 CF 5B
3A 02 0B 11 22 20 7B 40 80 00 4F 93 15 20 C2 93
31 02 0A 24 5F 42 3A 02 7F F0 3F 00 5F 92 31 02
03 24 E2 C2 26 02 0B 3C B2 40 F6 00 0C 02 E2 C2
26 02 D2 D3 26 02 03 3C 7F 90 1F 00 06 2C D2 53
28 02 5F 42 28 02 CF 43 3A 02 C2 4B 27 02 5E 92
2D 02 CF 27 C2 4E 2D 02 5A 43 10 3C 0C 5C 0D 6D
5E B3 01 24 1C D3 7D 90 82 00 08 20 3C 90 A5 46
05 20 B0 12 1E F2 E2 D2 26 02 4A 43 82 4C 0E 02
82 4D 10 02 C2 4A 2B 02 3B 41 3A 41 30 41 0A 12
4D 43 5D 92 2E 02 04 20 F2 D0 10 00 29 00 03 3C
F2 C0 10 00 29 00 5A 42 2B 02 5C 42 2A 02 7A 92
0A 28 5D 92 2F 02 02 20 5E 43 01 3C 4E 43 C2 4E
2F 02 5A 43 31 3C 5E 42 29 02 7E 90 07 00 03 2C
5D 4E 53 E0 10 3C 5F 42 0A 02 3F 50 07 00 0E 9F
03 34 5D 4E 53 02 07 3C C2 43 2C 02 E2 C3 26 02
F2 D0 10 00 26 02 0D FC 1D 93 02 34 4E 43 01 3C
5E 43 5E 92 2F 02 04 24 C2 4E 2F 02 5A 43 01 3C
5A 53 0C 11 09 20 7C 40 80 00 D2 53 29 02 F2 90
07 00 29 02 01 20 4A 43 C2 4C 2A 02 C2 4A 2B 02
C2 4E 2E 02 3A 41 30 41 F2 B0 12 00 26 02 03 20
B0 12 C4 E0 13 3C F2 B0 10 00 26 02 03 20 B0 12
94 E1 0C 3C F2 90 10 00 2C 02 03 2C D2 53 2C 02
05 3C F2 C0 10 00 26 02 F2 D2 26 02 1F 42 0C 02
1F 53 3F 90 2C 01 01 28 0F 43 82 4F 0C 02 30 40
1C F3 5C 42 28 02 30 41 C2 43 29 02 F2 40 40 00
2A 02 E2 D3 26 02 30 41 B0 12 40 F3 B0 12 8E E2
B0 12 CE F2 7C 40 35 00 B0 12 86 E8 F2 D0 10 00
2A 00 FE 3E B0 12 38 EF 5C 43 B0 12 34 F3 3A 40
88 E7 7B 40 03 00 38 40 D4 EE 39 40 F8 EB 08 3C
3C 40 39 02 B0 12 8A E6 6C 92 02 24 4C 4B 88 12
82 93 16 02 0C 20 D2 93 33 02 03 24 C2 93 33 02
04 20 B0 12 24 EE 6C 43 89 12 5C 43 88 12 5E 42
36 02 5E 83 05 24 5E 83 08 24 5E 83 1B 24 1C 3C
D2 42 38 02 37 02 4C 43 16 3C B0 12 14 F1 4C 93
0F 24 D2 92 37 02 38 02 09 20 B2 40 0C 5A 20 01
B0 12 5C F2 5C 43 B0 12 58 ED 06 3C B0 12 5C F2
5C 43 01 3C 6C 43 8A 12 C2 43 36 02 5E 42 33 02
4E 83 0D 24 5E 83 0B 24 5E 83 BA 27 5E 83 0C 24
5E 83 2E 24 5E 83 3E 24 5E 83 42 24 B9 3F D2 B3
26 02 B6 27 6C 43 B3 3F 5C 42 39 02 B0 12 7E E5
4C 83 14 24 5C 83 05 24 5C 83 0B 24 5C 83 A8 27
14 3C 6C 43 B0 12 8E F0 6C 42 88 12 4C 43 89 12
9F 3F 4C 43 89 12 D2 43 36 02 9A 3F 5C 43 89 12
4C 4B B0 12 8E F0 B0 12 18 F0 B0 12 4C F3 90 3F
F2 B2 26 02 8D 27 4C 4B B0 12 8E F0 F2 C2 26 02
B0 12 1E F2 B0 12 18 F0 7C 40 05 00 88 12 D2 C3
26 02 7E 3F D2 B3 26 02 7B 27 7C 40 06 00 77 3F
3C 40 39 02 B0 12 8A E6 4C 83 09 24 5C 83 0A 24
6C 83 B8 27 5C 83 6C 27 5C 83 CD 27 06 3C B0 12
40 F0 C9 3F C2 4B 36 02 63 3F 4C 4B 89 12 CD 3F
E2 B2 83 02 0C 7C 5C 53 30 41 5C 42 83 02 5C F3
30 41 E2 B3 83 02 F6 3F 0A 12 0B 12 08 12 09 12
21 82 C2 43 86 02 4C 43 B0 12 34 F2 4B 4C 5C 43
B0 12 34 F2 48 4C 39 40 56 F3 4B 93 05 24 4C 93
03 20 C2 93 88 02 20 24 4C 43 B0 12 F2 F1 81 4C
00 00 5C 43 B0 12 F2 F1 81 4C 02 00 4A 43 48 93
18 24 2C 91 0B 34 5A 43 5A 92 82 02 12 20 4B 93
10 24 F2 D0 20 00 83 02 4C 43 07 3C 5A 92 82 02
08 20 F2 D0 20 00 83 02 5C 43 89 12 3C 40 60 00
0A 3C F2 D0 20 00 83 02 4C 4A 89 12 0A 5A 0A 51
2C 4A B0 12 04 F3 21 52 30 40 76 F2 0A 12 0A 4C
5E 42 86 02 7E 90 13 00 07 28 B0 12 38 EF DA 43
00 00 B0 12 3E E4 1B 3C CC 43 00 00 7E 90 07 00
05 2C 1C 43 B0 12 10 F3 4A 4C 02 3C 7A 40 40 00
B0 12 62 F1 5E 42 86 02 B0 12 D6 F0 7A 53 7A D0
07 00 4C FA 5C 53 D2 53 86 02 B0 12 04 F3 3A 41
30 41 0A 12 32 C2 03 43 03 43 5A 42 32 02 1C 42
18 02 3E 40 A0 06 B0 12 94 F1 0C 4E B0 12 E0 F1
4E 4C 1E 53 5C 42 31 02 B0 12 66 EF 0C 5A 3E 40
35 00 B0 12 94 F1 C2 4E 32 02 32 D2 1F 42 70 01
3F 50 C0 01 82 4F 76 01 B2 40 B0 40 66 01 3A 41
30 41 F2 B2 83 02 56 3F 0A 12 0B 12 08 12 09 12
06 12 07 12 04 12 05 12 21 83 4A 4C B0 12 88 E2
45 4C 4B 43 48 43 B0 12 38 E4 C1 4C 00 00 79 40
03 00 C2 43 0A 02 4F 4A 2F 52 05 9F 62 28 3F 40
3A 02 0D 4F 0D 5A 57 4D 01 00 66 4D 76 F0 07 00
86 10 06 D7 6E 4D 7E F0 F8 00 6C 4D B0 12 E8 F1
17 42 08 02 04 47 14 53 6A 52 4D 4A 3A 40 86 02
7C 90 10 00 0D 2C 4E 93 1B 24 68 91 19 20 06 97
17 38 04 96 15 38 B0 12 80 F2 36 24 6B 43 34 3C
7E 90 80 00 1F 20 B0 12 80 F2 2E 24 16 92 08 02
2B 38 1F 42 08 02 1F 53 0F 96 26 38 69 43 10 3C
7C 50 F4 00 6C 92 01 2C 6D 53 45 9D 1D 28 B0 12
80 F2 1A 24 1A 92 06 02 02 24 59 43 01 3C 49 43
5B 43 12 3C 7E 90 88 00 0E 20 06 97 0C 38 04 96
0A 38 49 43 82 4A 20 02 82 4A 22 02 82 4A 06 02
C2 43 88 02 01 3C 58 43 4C 49 B0 12 86 EA 58 B3
03 20 7B 40 03 00 02 3C 82 46 12 02 4C 4B 21 53
30 40 6E F2 0A 12 0B 12 08 12 09 12 0B 4C B0 12
88 E2 4E 4C 6F 42 4C 93 71 24 7A 40 03 00 38 40
3A 02 6C 48 B0 12 DC F1 4C 83 07 24 5C 83 09 24
5C 83 13 24 5C 83 56 24 60 3C 5F 43 DB 43 00 00
5D 3C CB 4A 00 00 4E 9A 59 28 1E 42 1A 02 4D 4A
0C 48 B0 12 88 F2 36 20 50 3C 79 40 05 00 CB 49
00 00 4E 99 4B 28 1E 42 1A 02 4D 49 0C 48 B0 12
88 F2 43 24 C2 93 31 02 04 24 B2 90 86 02 06 02
3C 20 E2 B2 3B 02 20 24 C2 93 31 02 05 20 6E 48
7E F0 3F 00 C2 4E 31 02 5C 42 3C 02 5A F2 3B 02
8A 10 0C 5A 5F 42 87 02 0F 5F 8F 4C 20 02 B0 12
7C F1 5F 42 87 02 0F 5F 8F 4C 1C 02 B0 12 48 F2
C2 43 88 02 4F 43 1A 3C 4C 43 B0 12 34 F2 4C 93
07 24 D2 93 87 02 04 20 D2 43 88 02 4F 49 0E 3C
6F 43 0C 3C 6E 93 0A 28 5D 42 3B 02 7D F0 07 00
6D 52 CB 4D 00 00 4E 9D 01 28 4F 4A 4C 4F 30 40
76 F2 0A 12 0B 12 08 12 21 83 0A 43 C1 43 00 00
5B 43 32 C2 03 43 03 43 4C 83 05 24 5C 83 0C 24
5C 83 14 24 1D 3C C2 43 85 02 F2 F0 F3 00 83 02
B0 12 3E E4 0A 4C 14 3C B0 12 38 EF E2 C2 83 02
B0 12 3E E4 0A 4C D1 43 00 00 0A 3C 0C 41 B0 12
D2 E4 0A 4C 68 41 48 93 02 24 E2 C2 83 02 4B 43
B0 12 5E F3 B0 12 28 F3 B2 40 A0 01 60 01 18 42
70 01 1C 42 0C 02 B0 12 04 F3 3E 40 2C 01 B0 12
94 F1 7C 50 10 00 7C F0 1F 00 08 8C 82 48 18 02
08 5A 38 50 F4 FF 82 48 76 01 B2 40 10 00 66 01
D2 D3 83 02 3C 40 00 01 B0 12 6C E9 B2 40 8C 5A
20 01 32 D2 32 D0 D0 00 03 43 B2 40 0C 5A 20 01
68 41 48 93 03 24 4C 43 B0 12 34 F3 E2 B3 83 02
05 24 5C 42 84 02 B0 12 56 F3 07 3C F2 B0 20 00
83 02 03 24 D2 42 87 02 82 02 F2 C0 20 00 83 02
B0 12 28 E5 4C 4B B0 12 58 ED 21 53 30 40 78 F2
21 83 7C F0 3F 00 C1 4C 00 00 4C 12 B0 12 08 F2
4D 3C B2 40 20 02 60 01 82 43 62 01 D2 D3 22 00
D2 D3 2A 00 F2 C2 22 00 E2 D2 22 00 D2 C3 26 00
D2 C3 2E 00 F2 C2 26 00 E2 C2 26 00 D2 D3 29 00
E2 C2 21 00 D2 D3 21 00 D2 C3 21 00 D2 D3 21 00
1F 42 70 01 3F 50 AD 00 82 4F 72 01 92 B3 62 01
FD 27 D2 C3 21 00 F2 B2 20 00 FD 23 7C 40 30 00
B0 12 86 E8 F2 B2 20 00 FD 23 82 43 62 01 B0 12
C0 EF 4C 43 30 40 9C ED 21 83 7C F0 3F 00 C1 4C
00 00 4C 12 B0 12 08 F2 4C 4D 06 3C C1 4C 00 00
4C 12 B0 12 08 F2 4C 43 B0 12 94 EF D2 D3 21 00
21 52 30 41 21 83 7C D0 C0 00 F0 3F 0D 12 0C 12
0F 12 0E 12 F2 B2 23 00 05 24 F2 C2 23 00 B0 12
3E E2 04 3C C2 43 23 00 F2 F2 25 00 3E 41 3F 41
3C 41 3D 41 00 13 B2 B0 10 00 62 01 10 20 1F 42
70 01 0C 5F 0E 4C 3E 50 14 00 5F 82 18 02 3F F0
1F 00 0E 8F 82 4E 72 01 B2 40 10 00 62 01 30 41
0D 12 0C 12 0F 12 0E 12 82 43 62 01 C2 93 30 02
1D 24 B0 12 26 E4 4C 93 21 20 B0 12 82 EB C2 93
7E 02 09 24 C2 43 7E 02 4D 43 5C 43 B0 12 56 EC
4C 93 0C 20 13 3C C2 93 7F 02 0C 24 C2 43 7F 02
5D 43 5C 43 B0 12 56 EC 4C 93 08 24 B1 C0 F0 00
08 00 04 3C 3C 40 00 01 B0 12 6C E9 B7 3F 0A 12
0B 12 08 12 48 4C 4E 4C 0F 43 1C 42 00 02 0D 4C
0D 5D 0D 7D 3D E3 B0 12 08 EF 0A 4C 4B 4D 1A 52
02 02 5B 62 04 02 B2 90 6C 04 00 02 0F 20 5E 43
4F 4E 58 9F 38 E0 06 28 58 9F 39 E0 03 2C 0A 8E
4B 73 04 3C 5E 53 7E 90 0D 00 F2 2B 1E 42 04 10
0F 4E 0F 5F 0F 7F 7F E3 0A 5E 4B 6F 5E 42 24 02
8E 11 22 B2 0F 7F 7F E3 0A 5E 4B 6F 4D 4A 7C 40
0F 00 B0 12 0E E9 0D 4A 8D 10 7C 40 0E 00 B0 12
0E E9 4D 4B 7C 40 0D 00 B0 12 0E E9 30 40 78 F2
5E 42 87 02 4C 83 05 24 5C 83 1C 24 5C 83 2D 24
30 41 B0 12 62 F1 E2 F2 5A 02 F2 D2 5A 02 C2 4C
5B 02 0F 4C 8F 10 C2 4F 5C 02 C2 4D 5D 02 D2 43
5E 02 4C 4E B0 12 2E F1 C2 4C 5F 02 4D 43 7C 42
30 40 06 EB 5F 42 07 02 7F F0 07 00 C2 4F 5A 02
D2 42 06 02 5B 02 4C 4E B0 12 2E F1 C2 4C 5C 02
7D 40 05 00 4C 4D 30 40 06 EB 4C 4E B0 12 2E F1
C2 4C 5A 02 7D 40 07 00 7C 40 03 00 30 40 06 EB
0A 12 0B 12 08 12 09 12 21 83 48 4C 4A 4D B1 40
AA AA 00 00 39 40 F6 F0 5D B3 04 24 0D 41 5C 42
31 02 89 12 6A B3 08 24 0D 41 5C 42 07 02 89 12
0D 41 5C 42 06 02 89 12 6A B2 0D 24 B0 12 62 F1
0A 4C 4B 4D 0D 41 89 12 0D 41 0C 4A 8C 10 89 12
0D 41 4C 4B 89 12 2E 41 4D 48 3C 40 5A 02 B0 12
66 EE 5B 48 58 02 5F 48 59 02 8F 10 0F DB 82 4F
1A 02 C2 48 0A 02 21 53 30 40 76 F2 0A 12 C2 43
80 02 C2 43 81 02 4D 43 4E 4D 4E 5E 5F 42 29 00
7F F0 F1 00 4F DE C2 4F 29 00 03 43 F2 B0 20 00
28 00 0D 24 4E 4D 4F 4D 0F 11 4F 11 1C 43 4A 4D
7A F0 FC 00 4E 8A B0 12 10 F3 CF DC 80 02 5D 53
7D 92 E2 2B 4E 43 4F 4E 5D 4F 80 02 5A 4F 7C 02
4A 9D 03 24 CF 4D 7C 02 07 3C 5A 9F 7A 02 04 24
CF 4A 7A 02 DF 43 7E 02 5E 53 6E 93 EC 2B 3A 41
30 41 4C 83 07 24 5C 83 09 24 5C 83 19 24 5C 83
22 24 30 41 B2 40 05 00 14 02 0B 3C B2 90 05 00
14 02 1D 34 92 53 14 02 92 93 14 02 18 34 92 43
14 02 5E 42 3A 02 7E F0 3F 00 C2 4E 34 02 30 41
B0 12 AC F1 02 34 B2 53 14 02 92 93 14 02 07 34
D2 43 34 02 30 41 82 43 14 02 C2 43 34 02 30 41
5E 43 5F 42 85 02 E2 B2 83 02 10 20 5C B3 03 20
E2 C3 83 02 02 3C E2 D3 83 02 C2 4D 84 02 5F 53
7F 90 3C 00 03 28 4F 43 F2 D2 83 02 C2 4F 85 02
5F 42 83 02 7F F0 0A 00 7F 92 05 20 C2 93 85 02
02 24 4E 43 0A 3C 1F 42 70 01 1F 82 18 02 82 4F
18 02 D2 C3 83 02 E2 D2 83 02 4C 4E 30 41 0F 43
B2 40 00 51 66 01 B2 40 24 02 60 01 06 3C 5E 53
C2 4E 56 00 02 20 D2 53 57 00 92 B3 66 01 FD 27
92 C3 66 01 1E 42 76 01 0E 8F 1E C3 1F 42 76 01
3E 90 1A 04 03 20 82 43 66 01 30 41 3E 90 1B 04
5E 42 56 00 E4 2B 4D 4E 7D 53 C2 4D 56 00 4E 93
E4 23 F2 53 57 00 E1 3F 0D 12 0C 12 0F 12 0E 12
A2 92 2E 01 19 20 B2 50 C0 01 76 01 B0 12 30 E4
4C 93 12 24 4D 43 4C 43 B0 12 56 EC 4C 93 04 24
B1 C0 F0 00 08 00 08 3C 1F 42 70 01 82 4F 18 02
3F 50 00 F0 82 4F 76 01 3E 41 3F 41 3C 41 3D 41
00 13 0A 12 4A 4C B0 12 4C F3 82 43 0C 02 4C 43
B0 12 D4 EE 7C 40 03 00 B0 12 8E F0 4A 93 08 24
82 93 14 02 02 34 82 43 14 02 F2 40 C8 00 35 02
5C 42 32 02 B0 12 48 F1 B0 12 5E F3 5C 43 B0 12
8E F0 3A 41 30 41 0A 12 0B 12 21 83 3A 40 27 E0
4C 93 02 24 3A 40 30 E0 F1 40 7E 00 00 00 51 12
02 00 B0 12 08 F2 4B 4C 4D 43 21 53 0F 4A 0F 5D
6C 4F B0 12 94 EF 5D 53 7D 92 F8 2B D2 D3 21 00
4C 4B 21 53 3B 41 3A 41 30 41 0A 12 4A 4C F2 D0
30 00 57 00 F2 D0 0C 00 53 00 B2 40 0C 5A 20 01
E2 C3 21 00 E2 D3 22 00 B0 12 B4 EC B0 12 66 F3
F2 D0 F0 00 22 00 F2 F0 0F 00 21 00 4C 4A B0 12
B4 F0 4D 43 5C 43 B0 12 56 EC 3A 41 30 41 1E 42
14 02 2E 93 11 34 7E B0 3F 00 02 20 0E 93 0C 38
1E 93 10 20 5C 42 34 02 0C 5C 0C 5C 3E 40 35 00
B0 12 94 F1 C2 4E 34 02 7C 40 03 00 B0 12 8E F0
30 40 18 F0 B0 12 AC F1 02 38 E2 43 36 02 30 41
0A 12 0B 12 B0 12 C0 F2 0F 4C 8F 10 CB 4F FE FF
CB 4C FF FF 3B 41 3A 41 30 41 0A 12 0B 12 B0 12
C0 F2 5E 4B FF FF 5F 4B FE FF 8F 10 0E 5F 0C 9E
4C 43 22 B3 4C 63 EE 3F B2 40 A0 01 60 01 1F 42
70 01 3F 50 00 08 82 4F 72 01 B2 40 10 00 62 01
B2 40 8C 5A 20 01 32 D2 32 D0 D0 00 03 43 32 C2
03 43 B2 40 0C 5A 20 01 D2 43 30 02 30 41 6C 92
02 24 5C 93 05 20 F2 53 35 02 02 20 E2 43 36 02
4C 93 08 24 7C 90 05 00 05 20 3F 40 00 01 1F 82
0C 02 02 3C 3F 40 2C 01 82 4F 16 02 C2 4C 33 02
30 41 0B 12 0A 12 0A 4C 0B 4D 0C 43 0D 43 05 3C
02 28 0C 5E 0D 6F 0E 5E 0F 6F 12 C3 0B 10 0A 10
F7 23 02 28 0C 5E 0D 6F 0B 93 F5 23 3A 41 3B 41
30 41 C2 43 31 02 B2 40 81 07 12 02 C2 43 88 02
C2 43 87 02 B2 40 86 02 20 02 B2 40 86 02 22 02
B2 40 81 07 1C 02 B2 40 81 07 1E 02 30 40 48 F2
09 12 09 4C 0C 9E 03 28 09 4E 0E 4C 12 C3 0F 43
0C 43 0D 43 09 10 02 28 0C 5E 0D 6F 0E 5E 0F 6F
09 10 F9 23 02 28 0C 5E 0D 6F 39 41 30 41 4E 43
7F 40 80 00 D2 C3 29 00 4C BF 03 24 E2 D2 21 00
02 3C E2 C2 21 00 D2 D3 29 00 F2 B2 20 00 01 24
4E DF 0F 11 EF 23 4C 4E 30 41 21 83 F1 40 40 00
00 00 51 12 02 00 B0 12 08 F2 4D 43 21 53 5C 4D
00 E0 B0 12 94 EF 5D 53 7D 90 27 00 F8 2B D2 D3
21 00 21 53 30 41 4C 93 07 20 3E 40 49 BE 3F 40
22 00 3D 40 6C 04 06 3C 3E 40 9B D4 3F 40 22 00
3D 40 90 03 82 4D 00 02 82 4E 02 02 82 4F 04 02
30 41 5D 42 34 02 5C 42 32 02 B0 12 A0 F2 C2 4C
32 02 B0 12 48 F1 5C 43 B0 12 8E F0 1C 42 12 02
B0 12 EA F2 82 4C 12 02 30 41 5E 42 24 02 F2 93
25 02 05 34 7E 90 20 00 09 34 7E 53 07 3C E2 93
25 02 04 38 7E 90 E1 00 01 38 5E 53 C2 4E 24 02
30 41 0A 12 0B 12 08 12 0E 12 0B 4C 4A 4D 48 43
05 3C 0D 41 7C 4B B0 12 F6 F0 58 53 48 9A F9 2B
2C 41 21 53 30 40 78 F2 4C 93 02 20 30 40 90 F2
7C 90 03 00 02 20 30 40 F8 F2 E2 D3 21 00 5C 93
04 20 B0 12 F8 F2 30 40 8E E0 30 40 9E E2 F2 C0
20 00 2A 00 E2 D3 2A 00 E2 D2 2A 00 F2 D2 2A 00
4C 93 02 24 B0 12 9E EE 3C 40 00 01 30 40 6C E9
7E 90 10 00 05 28 0C 4D 0D 43 09 24 7E 80 10 00
4E 93 05 24 12 C3 0D 10 0C 10 5E 83 FB 23 30 41
4C 4C 2C ED 7E 42 0F 4C 12 C3 0C 10 1F B3 02 24
3C E0 01 A0 7E 53 F7 23 8D 4C 00 00 30 41 B2 90
86 02 20 02 07 20 B2 90 86 02 22 02 4C 43 22 B3
4C 63 30 41 4C 43 30 41 0A 12 4C 4C 5A 4C 7A 02
B0 12 38 E4 4C 93 02 20 7A D0 80 00 4C 4A 3A 41
30 41 4E 4C C2 4C 32 02 B0 12 DC F2 7E 90 35 00
02 28 B0 12 DC F2 4C 4E 30 40 F4 E9 C2 93 87 02
05 20 1C 42 00 10 1D 42 02 10 30 41 1C 42 10 10
1D 42 12 10 30 41 0F 43 03 3C 2F 53 3C 50 88 FF
3C 90 78 00 FA 2F B0 12 06 F3 0C 5F 30 41 0F 4E
0D 4C 0E 43 1C 43 0D 5D 0E 6E 0E 9F 01 28 0E 8F
0C 6C F9 2B 30 41 B0 12 78 E5 4C 93 03 20 3F 40
3F FF 02 3C 3F 40 BF FF 1F 92 14 02 30 41 0A 12
0A 4C 03 3C FA 4D 00 00 1A 53 0F 4E 3E 53 0F 93
F9 23 3A 41 30 41 12 C3 0C 10 12 C3 0C 10 12 C3
0C 10 12 C3 0C 10 0C 11 0C 11 30 41 4C 4C 0C 5C
1C 4C 1C 02 1C 82 12 02 1C 93 02 34 3C 50 80 07
30 41 D2 C3 29 00 D2 C3 21 00 F2 B2 20 00 FD 23
5C 41 02 00 30 40 94 EF F2 40 80 00 27 02 C2 43
28 02 C2 43 3A 02 F2 F0 FA 00 26 02 30 41 4C 4C
0C 5C BC 90 86 02 20 02 02 20 4C 43 30 41 5C 43
30 41 5E 42 87 02 0E 5E 92 4E 20 02 06 02 92 4E
1C 02 08 02 30 41 C2 93 38 02 4C 43 22 B3 4C 63
C2 4C 38 02 30 40 EC EF 35 41 34 41 37 41 36 41
39 41 38 41 3B 41 3A 41 30 41 58 43 3E 40 AA AA
0C 4F B0 12 80 EE 4C 93 30 41 B0 12 40 F3 E2 C3
21 00 7C 40 39 00 30 40 86 E8 4C 5D 02 3C 7C 50
CB 00 7C 90 35 00 FB 2F 30 41 0D 5C 03 3C CC 43
00 00 1C 53 0C 9D FB 23 30 41 0B 4C 4A 4D 6D 83
B0 12 68 F0 0B 5A 30 41 7C 40 32 00 B0 12 3A E9
C2 4C 25 02 30 41 4C 4E B0 12 08 F3 4E EC 7E F0
3F 00 30 41 3C 90 7F 07 02 38 0C 43 30 41 1C 53
30 41 F2 C2 25 00 7C 40 36 00 30 40 86 E8 0C 5C
0C 5C 0C 5C 0C 5C 0C 5C 30 41 4E 93 03 24 0C 5C
5E 83 FD 23 30 41 92 93 16 02 02 38 B2 53 16 02
30 41 5C 43 B0 12 8E F0 4C 43 30 40 8E F0 B0 12
E0 ED 32 D2 5C 43 30 40 58 ED F2 C2 25 00 7C 40
36 00 30 40 86 E8 D2 C3 26 02 D2 43 33 02 30 41
C2 4C 87 02 30 40 48 F2 F2 F0 10 00 26 02 30 41
B0 12 98 E8 30 40 90 F2 30 40 7A F3 30 40 6E F3
30 40 C4 F1 FF 3F 
@FFE4
42 E9 
@FFF0
0E ED 96 E9 
@FFFE
66 E0 
q
