@E000
AA AA AA AA 89 FC 45 2F 0B 4C 07 00 00 FF 00 12
00 00 06 00 22 BE 8B D8 83 00 20 00 35 07 00 18
16 6C 43 40 91 87 6B F8 56 10 A9 0A 00 11 C0 C9
83 8E 57 26 1C 0D 11 8E C9 83 8E 57 26 1C 0D 11
01 05 0A 0F 14 18 1D 22 27 2B 30 35 39 28 63 29
32 30 31 36 20 44 4D 50 00 
@E05A
86 02 81 07 6C 04 49 BE 22 00 0A 
@E066
31 40 00 03 3C 40 0C 02 3D 40 76 00 B0 12 7C F3
3C 40 00 02 3D 40 5A E0 3E 40 0B 00 B0 12 B2 F4
B0 12 C6 E2 B0 12 AA F4 B0 12 B6 E0 B0 12 D2 F3
B0 12 A4 E6 7C 40 35 00 B0 12 72 E7 F2 D0 10 00
2A 00 F2 C2 24 00 F2 C2 23 00 F2 D2 25 00 30 41
F2 C2 25 00 7C 40 36 00 30 40 72 E7 5C 42 73 02
30 41 0A 12 0B 12 4C 43 C2 93 79 02 04 20 F2 D0
10 00 29 00 03 3C F2 C0 10 00 29 00 5A 42 76 02
5B 42 75 02 7A 92 0A 28 C2 93 7A 02 02 20 5E 43
01 3C 4E 43 C2 4E 7A 02 5A 43 3A 3C 5D 42 74 02
7D 90 07 00 03 2C 5C 4D 00 E0 1A 3C 5E 42 0A 02
0F 4E 3F 50 07 00 0D 9F 0C 34 5C 4D 3A 02 3E 50
06 00 0D 9E 0D 20 6B 93 0B 20 F2 D0 20 00 71 02
07 3C C2 43 77 02 E2 C3 71 02 F2 D0 40 00 71 02
4C BB 02 20 4E 43 01 3C 5E 43 5E 92 7A 02 04 24
C2 4E 7A 02 5A 43 01 3C 5A 53 0B 11 09 20 7B 40
80 00 D2 53 74 02 F2 90 07 00 74 02 01 20 4A 43
C2 4B 75 02 C2 4A 76 02 C2 4E 79 02 3B 41 3A 41
30 41 0A 12 0B 12 F2 B0 10 00 28 00 4E 7E 5E 53
5A 42 76 02 1C 42 14 02 1D 42 16 02 F2 B0 05 00
71 02 3B 24 5B 42 72 02 7A 92 07 28 5E 92 78 02
2B 20 D2 C3 71 02 5A 53 43 3C 5F 42 73 02 4E 93
02 24 CF 5B 21 02 0B 11 1F 20 7B 40 80 00 4F 93
12 20 C2 93 1F 02 07 24 5F 42 21 02 7F F0 3F 00
C2 9F 1F 02 05 20 D2 D3 71 02 B2 40 F6 00 12 02
E2 C2 71 02 03 3C 7F 90 1F 00 06 2C D2 53 73 02
5F 42 73 02 CF 43 21 02 C2 4B 72 02 5E 92 78 02
D2 27 C2 4E 78 02 5A 43 13 3C 0C 5C 0D 6D 4E 93
02 24 1C D3 01 3C 1C C3 4F 4D 3C 90 A5 46 08 20
3F 90 82 00 05 20 B0 12 3C F3 E2 D2 71 02 4A 43
82 4C 14 02 82 4D 16 02 C2 4A 76 02 97 3F F2 B0
42 00 71 02 03 20 B0 12 88 E1 13 3C F2 B0 40 00
71 02 03 2C B0 12 C8 E0 0C 3C F2 90 10 00 77 02
03 2C D2 53 77 02 05 3C F2 C0 40 00 71 02 F2 D2
71 02 92 53 12 02 B2 90 2C 01 12 02 02 28 82 43
12 02 30 40 72 F4 B0 12 3C F3 F2 C2 25 00 F2 C0
10 00 2A 00 7C 40 34 00 B0 12 72 E7 1F 42 70 01
3F 50 C0 01 82 4F 76 01 B2 40 B0 40 66 01 F1 3E
5C 43 B0 12 1E F4 7A 40 03 00 3B 40 C4 EF 38 40
54 EC 05 3C D2 B3 71 02 02 28 6C 43 8B 12 82 93
1C 02 0C 20 D2 93 7B 02 03 24 C2 93 7B 02 04 20
B0 12 D0 EE 6C 43 88 12 5C 43 8B 12 5E 42 80 02
5F 42 7E 02 5F 83 05 24 5F 83 07 24 5F 83 15 24
17 3C C2 4E 7F 02 4C 43 11 3C 5E 92 7F 02 09 20
B2 40 0C 5A 20 01 B0 12 52 F3 5C 43 B0 12 8C EE
07 3C B0 12 52 F3 5C 43 01 3C 6C 43 B0 12 6E E5
C2 43 7E 02 5E 42 7B 02 4E 83 C4 27 5E 83 C2 27
5E 83 09 24 5E 83 0F 24 5E 83 31 24 5E 83 4B 24
5E 83 4F 24 BC 3F 3C 40 81 02 B0 12 94 E8 6C 92
B6 27 4C 4A B3 3F 5C 42 81 02 B0 12 3E E4 4C 83
14 24 5C 83 05 24 5C 83 0B 24 5C 83 A8 27 14 3C
6C 43 B0 12 00 EE 6C 42 8B 12 4C 43 88 12 9F 3F
4C 43 88 12 D2 43 7E 02 9A 3F 5C 43 88 12 4C 4A
B0 12 00 EE B0 12 64 F1 B0 12 7E F4 90 3F F2 B2
71 02 0F 28 4C 4A B0 12 00 EE F2 C2 71 02 B0 12
3C F3 B0 12 64 F1 7C 40 05 00 8B 12 F2 F0 EE 00
71 02 F2 B0 20 00 71 02 7A 2B F2 C0 20 00 71 02
B0 12 DA F1 74 3F D2 B3 71 02 71 2B 7C 40 06 00
6D 3F 3C 40 81 02 B0 12 94 E8 4C 83 09 24 5C 83
0A 24 6C 83 62 27 5C 83 62 27 5C 83 07 24 09 3C
B0 12 3C F1 BF 3F C2 4A 7E 02 59 3F E2 43 7E 02
56 3F 4C 4A 88 12 C0 3F 0A 12 0B 12 08 12 09 12
06 12 07 12 04 12 05 12 21 83 4A 4C B0 12 C2 E0
C1 4C 00 00 4B 43 48 43 B0 12 88 F4 C1 4C 01 00
79 40 03 00 C2 43 0A 02 6F 41 47 4A 27 52 0F 97
72 28 3F 40 21 02 06 4F 06 5A 6C 46 5E 46 01 00
47 4C 77 F0 07 00 87 10 07 DE 1E 42 02 02 04 4E
14 53 45 4C 75 F0 F8 00 B0 12 32 F3 6A 52 4D 4A
7C 90 10 00 19 2C 45 93 30 24 C1 93 01 00 2D 20
07 9E 2B 38 04 97 29 38 B0 12 C2 F3 47 24 6B 43
6E 46 7E F0 F8 00 7E 90 10 00 02 24 4C 43 01 3C
5C 43 B0 12 0E F3 3A 3C 75 90 80 00 03 24 75 90
90 00 27 20 B0 12 C2 F3 31 24 17 92 02 02 2E 38
1F 42 02 02 1F 53 0F 97 29 38 69 43 5B 43 6E 46
7E F0 F8 00 7E 90 90 00 E0 3F 7C 50 F4 00 6C 92
01 2C 6D 53 C1 9D 00 00 19 28 B0 12 C2 F3 16 24
B2 90 86 02 00 02 02 24 59 43 01 3C 49 43 5B 43
0D 3C 75 90 88 00 09 20 07 9E 07 38 04 97 05 38
49 43 B2 40 86 02 00 02 01 3C 58 43 4C 49 B0 12
8A E9 48 93 03 20 7B 40 03 00 02 3C 82 47 18 02
4C 4B 21 53 30 40 A0 F3 0A 12 0B 12 08 12 21 83
0A 43 C1 43 00 00 5B 43 32 C2 03 43 03 43 4C 83
05 24 5C 83 10 24 5C 83 18 24 22 3C C2 43 6C 02
F2 F0 F3 00 6B 02 0D 41 5C 43 B0 12 F2 EB 0A 4C
C1 43 00 00 15 3C E2 C2 6B 02 0D 41 5C 43 B0 12
F2 EB 0A 4C D1 43 00 00 0B 3C 0D 41 4C 43 B0 12
F2 EB 0A 4C C1 93 00 00 02 24 E2 C2 6B 02 4B 43
B0 12 9A F4 B0 12 36 F4 B2 40 A0 01 60 01 18 42
70 01 1C 42 12 02 B0 12 B6 F3 3E 40 2C 01 B0 12
64 F2 7C 50 10 00 7C F0 1F 00 08 8C 82 48 0E 02
08 5A 38 50 F4 FF 82 48 76 01 B2 40 10 00 66 01
D2 D3 6B 02 3C 40 00 01 B0 12 12 F1 B2 40 8C 5A
20 01 32 D2 32 D0 D0 00 03 43 B2 40 0C 5A 20 01
C1 93 00 00 05 24 B0 12 F6 F2 4C 43 B0 12 1E F4
32 C2 03 43 03 43 5A 42 20 02 1C 42 0E 02 3E 40
A0 06 B0 12 64 F2 0C 4E B0 12 2A F3 4C 4C 1C 53
5E 42 1F 02 B0 12 30 F0 0C 5A 3E 40 35 00 B0 12
64 F2 C2 4E 20 02 32 D2 1F 42 70 01 3F 50 C0 01
82 4F 76 01 B2 40 B0 40 66 01 4C 4B B0 12 8C EE
21 53 30 40 AA F3 21 83 7C D0 C0 00 11 3C 7C 40
32 00 B0 12 9C E6 C2 4C 70 02 30 41 21 83 7C F0
3F 00 C1 4C 00 00 4C 12 B0 12 84 E7 4C 4D 06 3C
C1 4C 00 00 4C 12 B0 12 84 E7 4C 43 B0 12 E6 F0
D2 D3 21 00 21 52 30 41 0A 12 0B 12 08 12 48 4C
0C 48 0D 43 1E 42 04 02 0F 4E 3F E3 0F 5F 0F 7F
B0 12 5E F0 0A 4C 4B 4D 1A 52 06 02 5B 62 08 02
B2 90 6C 04 04 02 0F 20 5E 43 4F 4E 58 9F 3F E0
06 28 58 9F 40 E0 03 2C 0A 8E 4B 73 04 3C 5E 53
7E 90 0D 00 F2 2B 1C 42 04 10 0D 4C 3D E3 0D 5D
4D 7D 5E 42 6F 02 8E 11 0F 4E 3F E3 0F 5F 4F 7F
0C 5E 4D 6F 0A 5C 4B 6D 4D 4A 7C 40 0F 00 B0 12
B2 E6 0D 4A 8D 10 7C 40 0E 00 B0 12 B2 E6 4D 4B
7C 40 0D 00 B0 12 B2 E6 30 40 AA F3 21 83 7C F0
3F 00 C1 4C 00 00 4C 12 B0 12 84 E7 A9 3F D2 C3
29 00 D2 C3 21 00 F2 B2 20 00 FD 2F 5C 41 02 00
30 40 E6 F0 0A 12 0B 12 08 12 09 12 4E 43 4C 93
08 24 5F 42 66 02 C2 9F 62 02 03 24 5E 43 C2 4F
62 02 5F 42 6A 02 82 93 0C 02 60 24 4F 93 02 20
4D 43 01 3C 5D 43 B2 53 0C 02 02 20 4F 43 03 3C
4F 93 01 24 7F 53 4D 93 04 24 4F 93 02 20 B0 12
8E F3 82 93 0C 02 4A 24 4C 93 4C 24 58 42 67 02
4D 48 7D F0 C0 00 3A 40 63 02 7B 40 40 00 4D 9B
0F 24 69 4A 79 F0 C0 00 49 9B 0A 20 5E 43 49 48
79 F0 C0 00 6C 4A 7C F0 3F 00 4C D9 C2 4C 63 02
6C 4A B0 12 2E F3 49 4C 79 F0 03 00 4C 48 B0 12
2E F3 7C F0 03 00 4C 99 0B 24 49 93 09 24 5E 43
78 F0 30 00 69 4A 79 F0 CF 00 49 D8 C2 49 63 02
4D 9B 05 20 6D 4A 7D F0 C0 00 4D 9B 08 20 4C 93
0B 24 6C 4A B0 12 2E F3 7C B0 03 00 05 20 4F 93
09 20 7F 40 50 00 06 3C 4F 43 04 3C 4C 93 02 24
B0 12 8E F3 C2 4F 6A 02 4C 4E 30 40 A8 F3 0A 12
0B 12 08 12 0B 4C B0 12 C2 E0 4E 4C 6F 42 4C 93
31 24 7A 40 03 00 38 40 21 02 6C 48 B0 12 26 F3
4C 83 07 24 5C 83 09 24 5C 83 27 24 5C 83 55 24
5F 3C 5F 43 DB 43 00 00 1D 3C CB 4A 00 00 4E 9A
19 28 1E 42 10 02 4D 4A 0C 48 B0 12 8C F1 4C 93
4F 24 4F 43 5E 42 6E 02 4D 4E 7D F0 0F 00 6D 92
09 2C 4D 4E 5D 53 7D F0 0F 00 7E F0 F0 00 4E DD
C2 4E 6E 02 4C 4F 30 40 AA F3 FB 40 05 00 00 00
7E 90 05 00 F7 2B 1E 42 10 02 7D 40 05 00 0C 48
B0 12 8C F1 4C 93 2C 24 C2 93 1F 02 04 24 B2 90
86 02 00 02 25 20 E2 B2 22 02 15 28 C2 93 1F 02
05 20 6E 48 7E F0 3F 00 C2 4E 1F 02 5C 42 23 02
5A F2 22 02 8A 10 0C 5A 82 4C 00 02 B0 12 AE F2
82 4C 02 02 BE 3F 6F 43 CD 3F 6E 93 CB 2B 5D 42
22 02 7D F0 07 00 6D 52 CB 4D 00 00 4E 9D C2 2B
4F 4A C0 3F 21 83 4C 83 05 24 5C 83 21 24 5C 83
1F 24 42 3C F2 F0 06 00 41 02 F2 D0 18 00 41 02
D2 42 00 10 42 02 D2 42 01 10 43 02 5E 42 02 10
C2 4E 44 02 E2 43 45 02 0C 41 B0 12 50 EF E2 41
46 02 D2 41 01 00 47 02 4D 43 7C 40 09 00 22 3C
5E 42 41 02 7E F0 07 00 7E D0 10 00 C2 4E 41 02
5E 42 01 02 7E F0 07 00 5F 42 41 02 7F F0 F8 00
4F DE C2 4F 41 02 D2 42 00 02 42 02 0C 41 B0 12
50 EF E2 41 43 02 D2 41 01 00 44 02 7D 40 05 00
7C 40 06 00 B0 12 22 EA 21 53 30 41 0A 12 0B 12
08 12 21 83 4B 4C 4A 4D B1 40 AA AA 00 00 38 40
40 F2 5D B3 04 28 0D 41 5C 42 1F 02 88 12 6A B3
08 28 0D 41 5C 42 01 02 88 12 0D 41 5C 42 00 02
88 12 6A B2 0C 28 0D 41 5C 42 00 10 88 12 0D 41
5C 42 01 10 88 12 0D 41 5C 42 02 10 88 12 2E 41
4D 4B 3C 40 41 02 B0 12 FE F1 5E 4B 3F 02 5F 4B
40 02 8F 10 0F DE 82 4F 10 02 C2 4B 0A 02 21 53
30 40 AA F3 B2 40 20 02 60 01 82 43 62 01 D2 D3
22 00 D2 D3 2A 00 F2 C2 22 00 E2 D2 22 00 D2 C3
26 00 D2 C3 2E 00 F2 C2 26 00 E2 C2 26 00 D2 D3
29 00 E2 C2 21 00 D2 D3 21 00 D2 C3 21 00 D2 D3
21 00 1F 42 70 01 3F 50 AD 00 82 4F 72 01 92 B3
62 01 FD 2B D2 C3 21 00 F2 B2 20 00 FD 2F 7C 40
30 00 B0 12 72 E7 F2 B2 20 00 FD 2F 82 43 62 01
B0 12 BA F0 4C 43 30 40 48 EE F2 40 18 00 59 00
F2 40 20 00 5A 00 4E 43 C2 43 69 02 E2 B3 20 00
02 2C 7E 40 40 00 C2 4E 68 02 F2 B0 40 00 20 00
03 2C F2 40 40 00 69 02 5E 42 69 02 7E F0 CF 00
D2 B3 5A 00 05 28 7E D0 20 00 C2 4E 69 02 0D 3C
F2 40 28 00 59 00 7E D0 10 00 C2 4E 69 02 D2 B3
5A 00 03 28 F2 F0 CF 00 69 02 F2 C2 59 00 52 12
68 02 D1 42 69 02 01 00 B0 12 0C ED 21 53 30 41
0D 12 0C 12 0F 12 0E 12 82 43 62 01 C2 93 1E 02
04 20 B1 C0 F0 00 08 00 13 3C B0 12 42 F4 4C 93
0F 20 B0 12 10 EB 4C 93 07 24 4D 43 5C 43 B0 12
62 ED 4C 93 EE 23 04 3C 3C 40 00 01 B0 12 12 F1
3E 41 3F 41 3C 41 3D 41 00 13 0D 12 0C 12 0F 12
0E 12 F2 B2 23 00 05 28 F2 C2 23 00 B0 12 54 E2
04 3C C2 43 23 00 F2 F2 25 00 EA 3F 0A 12 0B 12
0A 4D 4C 93 05 20 5B 42 6D 02 7B 90 13 00 07 28
B0 12 68 F3 C2 43 6D 02 DA 43 00 00 1D 3C CD 43
00 00 7B 90 07 00 06 2C 1C 43 4E 4B B0 12 4E F4
4F 4C 02 3C 7F 40 40 00 1C 42 00 10 1D 42 02 10
4E 4B B0 12 20 F2 7F 53 7F D0 07 00 4C FF 5C 53
D2 53 6D 02 B0 12 B6 F3 3B 41 3A 41 30 41 4C 83
07 24 5C 83 09 24 5C 83 19 24 5C 83 22 24 30 41
B2 40 05 00 1A 02 0B 3C B2 90 05 00 1A 02 1D 34
92 53 1A 02 92 93 1A 02 18 34 92 43 1A 02 5E 42
21 02 7E F0 3F 00 C2 4E 7C 02 30 41 B0 12 96 F2
02 34 B2 53 1A 02 92 93 1A 02 07 34 D2 43 7C 02
30 41 82 43 1A 02 C2 43 7C 02 30 41 0F 43 B2 40
00 51 66 01 B2 40 24 02 60 01 06 3C 5E 53 C2 4E
56 00 02 20 D2 53 57 00 92 B3 66 01 FD 2B 92 C3
66 01 1E 42 76 01 0E 8F 1E C3 1F 42 76 01 3E 90
1A 04 03 20 82 43 66 01 30 41 3E 90 1B 04 5E 42
56 00 E4 2B 4D 4E 7D 53 C2 4D 56 00 4E 93 E4 23
F2 53 57 00 E1 3F 4C 43 3F 40 64 02 D1 92 65 02
03 00 03 20 E1 9F 02 00 07 24 DF 41 02 00 00 00
DF 41 03 00 01 00 18 3C D2 92 65 02 67 02 03 20
E2 9F 66 02 11 24 F2 B0 40 00 62 02 04 2C F2 B0
40 00 64 02 03 28 F2 F0 F0 00 6E 02 E2 4F 66 02
D2 4F 01 00 67 02 5C 43 30 40 9A E7 5E 43 5F 42
6C 02 5D 42 6B 02 6D B2 0B 2C 5C B3 02 2C 6D C3
01 3C 6D D3 5F 53 7F 90 3C 00 02 28 4F 43 7D D2
C2 4F 6C 02 4F 4D 7F F0 0A 00 7F 92 05 20 C2 93
6C 02 02 24 4E 43 08 3C 1F 42 70 01 1F 82 0E 02
82 4F 0E 02 5D C3 6D D2 C2 4D 6B 02 4C 4E 30 41
0D 12 0C 12 0F 12 0E 12 A2 92 2E 01 19 20 B2 50
C0 01 76 01 B0 12 92 F4 4C 93 12 24 4D 43 4C 43
B0 12 62 ED 4C 93 04 24 B1 C0 F0 00 08 00 08 3C
1F 42 70 01 82 4F 0E 02 3F 50 00 F0 82 4F 76 01
3E 41 3F 41 3C 41 3D 41 00 13 0A 12 4A 4C 4C 93
05 20 B0 12 E2 F3 B0 12 2A F4 19 3C 7C 90 03 00
03 20 B0 12 66 F4 13 3C 5E 42 6E 02 7E F0 0F 00
6E 92 02 2C E2 D3 29 00 B0 12 DE F2 5A 93 05 20
B0 12 66 F4 B0 12 9C E2 02 3C B0 12 8E E0 3A 41
30 41 0A 12 0B 12 21 83 3A 40 2E E0 4C 93 02 24
3A 40 37 E0 F1 40 7E 00 00 00 51 12 02 00 B0 12
84 E7 4B 4C 4D 43 21 53 0F 4A 0F 5D 6C 4F B0 12
E6 F0 5D 53 7D 92 F8 2B D2 D3 21 00 4C 4B 21 53
3B 41 3A 41 30 41 0A 12 4A 4C B0 12 7E F4 82 43
12 02 4C 43 B0 12 C4 EF 7C 40 03 00 B0 12 00 EE
4A 93 08 24 82 93 1A 02 02 34 82 43 1A 02 F2 40
C8 00 7D 02 5C 42 20 02 B0 12 7C F2 B0 12 9A F4
5C 43 B0 12 00 EE 3A 41 30 41 1E 42 1A 02 2E 93
11 34 7E B0 3F 00 02 20 0E 93 0C 38 1E 93 10 20
5C 42 7C 02 0C 5C 0C 5C 3E 40 35 00 B0 12 64 F2
C2 4E 7C 02 7C 40 03 00 B0 12 00 EE 30 40 64 F1
B0 12 96 F2 02 38 E2 43 7E 02 30 41 0A 12 4A 4C
F2 D0 30 00 57 00 F2 D0 0C 00 53 00 B2 40 0C 5A
20 01 E2 C3 29 00 E2 D3 2A 00 B0 12 B2 EC B0 12
A2 F4 F2 D0 B0 00 22 00 4C 4A B0 12 8E EF 4D 43
5C 43 B0 12 62 ED 3A 41 30 41 0A 12 21 83 0A 4C
D1 42 62 02 00 00 D1 42 63 02 01 00 D2 B3 61 02
03 28 F1 D0 20 00 00 00 B0 12 88 F4 4C 93 03 20
F1 D0 80 00 00 00 EA 41 00 00 DA 41 01 00 01 00
0C 4A 21 53 3A 41 30 41 F2 C0 40 00 22 00 E2 C3
22 00 F2 C2 2A 00 F2 D0 20 00 2A 00 F2 C0 20 00
2E 00 F2 C0 20 00 29 00 F2 40 0C 00 5B 00 4C 93
02 24 B0 12 F8 EF 3C 40 00 01 30 40 12 F1 6C 92
02 24 5C 93 05 20 F2 53 7D 02 02 20 E2 43 7E 02
4C 93 08 24 7C 90 05 00 05 20 3F 40 00 01 1F 82
12 02 02 3C 3F 40 2C 01 82 4F 1C 02 C2 4C 7B 02
30 41 B2 40 A0 01 60 01 1F 42 70 01 3F 50 00 08
82 4F 72 01 B2 40 10 00 62 01 B2 40 8C 5A 20 01
32 D2 32 D0 D0 00 32 C2 03 43 B2 40 0C 5A 20 01
D2 43 1E 02 30 41 7C F3 7E F3 09 12 09 4C 0C 9E
03 28 09 4E 0E 4C 12 C3 0F 43 0C 43 0D 43 09 10
02 28 0C 5E 0D 6F 0E 5E 0F 6F 09 10 F9 23 02 28
0C 5E 0D 6F 39 41 30 41 0A 12 0B 12 0A 4C 0B 4D
0C 43 0D 43 0A 93 02 20 0B 93 0B 24 12 C3 0B 10
0A 10 02 28 0C 5E 0D 6F 0E 5E 0F 6F F3 23 0E 93
F1 23 3B 41 3A 41 30 41 4C 93 07 20 3E 40 49 BE
3F 40 22 00 3D 40 6C 04 06 3C 3E 40 9B D4 3F 40
22 00 3D 40 90 03 82 4D 04 02 82 4E 06 02 82 4F
08 02 30 41 21 83 F1 40 40 00 00 00 51 12 02 00
B0 12 84 E7 4D 43 21 53 5C 4D 07 E0 B0 12 E6 F0
5D 53 7D 90 27 00 F8 2B D2 D3 21 00 21 53 30 41
4E 43 7F 40 80 00 D2 C3 29 00 4C BF 03 24 E2 D2
21 00 02 3C E2 C2 21 00 D2 D3 29 00 F2 B2 20 00
01 28 4E DF 0F 11 EF 23 4C 4E 30 41 B2 B0 10 00
62 01 10 2C 1F 42 70 01 0E 4F 0E 5C 3E 50 14 00
1F 82 0E 02 3F F0 1F 00 0E 8F 82 4E 72 01 B2 40
10 00 62 01 30 41 5E 42 6F 02 F2 93 70 02 05 34
7E 90 20 00 09 34 7E 53 07 3C E2 93 70 02 04 38
7E 90 E1 00 01 38 5E 53 C2 4E 6F 02 30 41 5D 42
7C 02 5C 42 20 02 B0 12 F2 F3 C2 4C 20 02 B0 12
7C F2 5C 43 B0 12 00 EE 1C 42 18 02 B0 12 02 F4
82 4C 18 02 30 41 0A 12 4D 4D 0A 4C 0A 5D 6D 83
B0 12 B4 F1 5E 4A FF FF 5F 4A FE FF 8F 10 0E 5F
0C 9E 02 24 4C 43 01 3C 5C 43 3A 41 30 41 0A 12
0B 12 08 12 0E 12 0B 4C 4A 4D 48 43 05 3C 0D 41
7C 4B B0 12 40 F2 58 53 48 9A F9 2B 2C 41 21 53
30 40 AA F3 D2 B3 5A 00 0C 28 5E 42 61 02 0E 11
7E 90 0A 00 03 2C E2 53 61 02 30 41 D2 D3 61 02
30 41 C2 43 61 02 30 41 0A 12 0B 12 0B 4C 4A 4D
6D 83 B0 12 B4 F1 0B 5A 0F 4C 8F 10 CB 4F FE FF
CB 4C FF FF 3B 41 3A 41 30 41 7E 90 10 00 06 28
0C 4D 3D E3 0D 5D 0D 7D 7E 80 10 00 4E 93 04 24
0D 11 0C 10 5E 83 FC 23 30 41 4C 4C 2C ED 7E 42
0F 4C 12 C3 0F 10 1C B3 0C 4F 02 28 3C E0 01 A0
7E 53 F6 23 8D 4C 00 00 30 41 7C F3 7E F3 0F 4E
0D 4C 0E 43 1C 43 0D 5D 0E 6E 0E 9F 01 28 0E 8F
0C 6C F9 2B 30 41 4E 4C C2 4C 20 02 B0 12 10 F4
7E 90 35 00 02 28 B0 12 10 F4 4C 4E 30 40 DE E6
B0 12 5A F4 4C 93 03 20 3F 40 3F FF 02 3C 3F 40
BF FF 1F 92 1A 02 30 41 0F 43 03 3C 2F 53 3C 50
88 FF 3C 90 78 00 FA 2F B0 12 B8 F3 0C 5F 30 41
0A 12 0A 4C 03 3C FA 4D 00 00 1A 53 0F 4E 3E 53
0F 93 F9 23 3A 41 30 41 F2 D0 20 00 29 00 F2 40
60 00 59 00 F2 40 06 00 5A 00 F2 D2 59 00 30 41
B2 40 86 02 00 02 C2 43 1F 02 B2 40 81 07 18 02
B2 40 81 07 02 02 30 41 4C 93 04 24 B2 40 D0 02
0C 02 30 41 82 93 0C 02 02 24 A2 42 0C 02 30 41
12 C3 0C 10 12 C3 0C 10 12 C3 0C 10 12 C3 0C 10
0C 11 0C 11 30 41 F2 40 80 00 72 02 C2 43 73 02
C2 43 21 02 F2 F0 FA 00 71 02 30 41 C2 93 80 02
02 24 4E 43 01 3C 5E 43 C2 4E 80 02 4C 4E 30 40
8E F0 1C 42 02 02 1C 82 18 02 1C 93 02 34 3C 50
80 07 30 40 B6 F3 0F 4C 0F 5D 03 3C CC 43 00 00
1C 53 0C 9F FB 23 30 41 58 42 67 02 C2 98 63 02
03 24 5E 43 C2 48 63 02 30 41 35 41 34 41 37 41
36 41 39 41 38 41 3B 41 3A 41 30 41 0C 5C 0C 5C
0C 5C 0C 5C 0C 5C 0C 5C 0C 5C 30 41 58 43 3E 40
AA AA 0C 4F B0 12 8C F1 4C 93 30 41 C2 43 74 02
F2 40 40 00 75 02 E2 D3 71 02 30 41 B0 12 B6 E0
E2 C3 29 00 7C 40 39 00 30 40 72 E7 4C 5D 02 3C
7C 50 CB 00 7C 90 35 00 FB 2F 30 41 3C 90 7F 07
02 38 0C 43 30 41 1C 53 30 41 4C 4E B0 12 BA F3
4E EC 7E F0 3F 00 30 41 B0 12 12 EF 32 D2 5C 43
30 40 8C EE F2 C2 59 00 F2 C0 20 00 29 00 30 41
5C 43 B0 12 00 EE 4C 43 30 40 00 EE 5C 42 6B 02
0C 11 4C 11 5C F3 30 41 4E 93 03 24 0C 5C 5E 83
FD 23 30 41 5C 42 6B 02 B0 12 32 F3 5C F3 30 41
F2 C2 25 00 7C 40 36 00 30 40 72 E7 92 93 1C 02
02 38 B2 53 1C 02 30 41 D2 C3 71 02 D2 43 7B 02
30 41 5C 42 6B 02 0C 11 5C F3 30 41 5C 42 6B 02
5C F3 30 41 F2 F0 40 00 71 02 30 41 B0 12 9A EA
30 40 E2 F3 30 40 AE F4 30 40 B6 F4 30 40 C6 F2
FF 3F 
@FFE4
D0 EB 
@FFF0
B6 ED 86 EB 
@FFFE
66 E0 
q
